<?xml version="1.0" encoding="UTF-8" standalone="no"?>
<!-- Generator: Adobe Illustrator 19.1.0, SVG Export Plug-In . SVG Version: 6.00 Build 0)  -->

<svg
   xmlns:dc="http://purl.org/dc/elements/1.1/"
   xmlns:cc="http://creativecommons.org/ns#"
   xmlns:rdf="http://www.w3.org/1999/02/22-rdf-syntax-ns#"
   xmlns:svg="http://www.w3.org/2000/svg"
   xmlns="http://www.w3.org/2000/svg"
   xmlns:sodipodi="http://sodipodi.sourceforge.net/DTD/sodipodi-0.dtd"
   xmlns:inkscape="http://www.inkscape.org/namespaces/inkscape"
   version="1.1"
   id="Layer_1"
   x="0px"
   y="0px"
   viewBox="0 0 48 48"
   xml:space="preserve"
   inkscape:version="0.91 r13725"
   sodipodi:docname="orcid_logo.svg"
   width="48"
   height="48"><metadata
     id="metadata7403"><rdf:RDF><cc:Work
         rdf:about=""><dc:format>image/svg+xml</dc:format><dc:type
           rdf:resource="http://purl.org/dc/dcmitype/StillImage" /><dc:title></dc:title></cc:Work></rdf:RDF></metadata><defs
     id="defs7401" /><sodipodi:namedview
     pagecolor="#ffffff"
     bordercolor="#666666"
     borderopacity="1"
     objecttolerance="10"
     gridtolerance="10"
     guidetolerance="10"
     inkscape:pageopacity="0"
     inkscape:pageshadow="2"
     inkscape:window-width="1920"
     inkscape:window-height="1053"
     id="namedview7399"
     showgrid="false"
     inkscape:zoom="5.2149125"
     inkscape:cx="30.80857"
     inkscape:cy="20.879986"
     inkscape:window-x="0"
     inkscape:window-y="27"
     inkscape:window-maximized="1"
     inkscape:current-layer="Layer_1" /><style
     type="text/css"
     id="style7387">
	.st1{fill:#FFFFFF;}
</style><path
     class="st0"
     d="M 42,24 C 42,33.942188 33.942188,42 24,42 14.057813,42 6,33.942188 6,24 6,14.057812 14.057813,6 24,6 c 9.942188,0 18,8.057812 18,18 z"
     id="path7389"
     inkscape:connector-curvature="0" /><g
     id="g7391"
     transform="matrix(0.140625,0,0,0.140625,6,6)"><path
       class="st1"
       d="m 86.3,186.2 -15.4,0 0,-107.1 15.4,0 0,48.4 0,58.7 z"
       id="path7393"
       inkscape:connector-curvature="0"
       style="fill:#ffffff" /><path
       class="st1"
       d="m 108.9,79.1 41.6,0 c 39.6,0 57,28.3 57,53.6 0,27.5 -21.5,53.6 -56.8,53.6 l -41.8,0 0,-107.2 z m 15.4,93.3 24.5,0 c 34.9,0 42.9,-26.5 42.9,-39.7 C 191.7,111.2 178,93 148,93 l -23.7,0 0,79.4 z"
       id="path7395"
       inkscape:connector-curvature="0"
       style="fill:#ffffff" /><path
       class="st1"
       d="m 88.7,56.8 c 0,5.5 -4.5,10.1 -10.1,10.1 -5.6,0 -10.1,-4.6 -10.1,-10.1 0,-5.6 4.5,-10.1 10.1,-10.1 5.6,0 10.1,4.6 10.1,10.1 z"
       id="path7397"
       inkscape:connector-curvature="0"
       style="fill:#ffffff" /></g></svg>